NetCDF-CF Geometry and Timeseries Tools for R
…
Sample Data

We will start with two dataframes: prcp_data and climdiv_poly containing precipitation estimate timeseries and polygon geometries that describe the boundaries of climate divisions respectively. The precipitation data has one time series for each geometry.

Code to download and prep these data is shown at the bottom. More info about the data can be found at: doi:10.7289/V5M32STR

The data required for this demo has been cached in the ncdfgeom package and is available as shown below.

prcp_data

prcp_data <- readRDS(system.file("extdata/climdiv-pcpndv.rds", package = "ncdfgeom"))
print(prcp_data, n_extra = 0)
#> # A tibble: 1,491 x 345
#>    date       `0101` `0102` `0103` `0104` `0105` `0106` `0107` `0108` `0201`
#>    <date>      <dbl>  <dbl>  <dbl>  <dbl>  <dbl>  <dbl>  <dbl>  <dbl>  <dbl>
#>  1 1895-01-01   7.37   8.11   7.77   7.72   7.42   7.39   7.46   6.61   2.8 
#>  2 1895-02-01   1.41   2.37   2.27   2.72   2.94   2.85   2.97   3.65   0.8 
#>  3 1895-03-01   7.17   7.5    7.16   7.48   8.29   7.92   7.88   6.66   0.52
#>  4 1895-04-01   2.72   3.17   3.07   3.29   4.65   3.4    3.85   4.72   0.06
#>  5 1895-05-01   3.06   4.23   2.78   4.61   4.99   3.84   3.73   3.7    0.47
#>  6 1895-06-01   4.04   4.68   5.07   4.02   4.09   5.89   6.93  11.9    0.06
#>  7 1895-07-01   4.58   4.83   4.09   4.29   4.03   3.74   4.59   7.76   0.27
#>  8 1895-08-01   4      5.16   3.81   5.26   4.82   4.26   6.13   7.97   0.93
#>  9 1895-09-01   3.41   2.25   1.64   1.52   0.67   0.98   1.25   2.46   0.12
#> 10 1895-10-01   2.28   2.29   2.38   2.03   1.93   2.03   2.14   3.21   0.33
#> # ... with 1,481 more rows
…
climdiv_poly

climdiv_poly <- read_sf(system.file("extdata/climdiv.gpkg", package = "ncdfgeom"))
print(climdiv_poly)
#> Simple feature collection with 344 features and 2 fields
#> Geometry type: MULTIPOLYGON
#> Dimension:     XY
#> Bounding box:  xmin: -124.7332 ymin: 24.54537 xmax: -66.9501 ymax: 49.38027
#> Geodetic CRS:  GRS 1980(IUGG, 1980)
#> # A tibble: 344 x 3
#>    CLIMDIV CLIMDIV_NAME                                                     geom
#>    <chr>   <chr>                                              <MULTIPOLYGON [°]>
#>  1 0101    NORTHERN VALLEY   (((-88.05783 35.00647, -86.31127 34.9911, -86.2557~
#>  2 0102    APPALACHIAN MOUN~ (((-86.25819 34.99064, -85.60517 34.98468, -85.513~
#>  3 0103    UPPER PLAINS      (((-88.0181 34.31526, -87.10991 34.2993, -87.11199~
#>  4 0104    EASTERN VALLEY    (((-85.51167 34.51693, -85.39884 33.96413, -85.495~
#>  5 0105    PIEDMONT PLATEAU  (((-85.40764 33.96421, -85.18459 32.86152, -85.154~
#>  6 0106    PRAIRIE           (((-87.97935 32.30709, -88.42145 32.30868, -88.340~
#>  7 0107    COASTAL PLAIN     (((-85.00105 32.51048, -84.99635 32.45474, -84.963~
#>  8 0108    GULF              (((-87.7888 31.29879, -87.71435 31.30213, -87.6612~
#>  9 0201    NORTHWEST         (((-114.7559 36.08584, -114.6309 36.14248, -114.61~
#> 10 0202    NORTHEAST         (((-110.5007 37.00426, -109.0452 36.99909, -109.04~
#> # ... with 334 more rows
…
